%YAML 1.1
%TAG !u! tag:unity3d.com,2011:
--- !u!114 &11400000
MonoBehaviour:
  m_ObjectHideFlags: 0
  m_CorrespondingSourceObject: {fileID: 0}
  m_PrefabInstance: {fileID: 0}
  m_PrefabAsset: {fileID: 0}
  m_GameObject: {fileID: 0}
  m_Enabled: 1
  m_EditorHideFlags: 0
  m_Script: {fileID: 11500000, guid: 709c3da44ba27a943ad4b48a106bd4d0, type: 3}
  m_Name: RobotWalk
  m_EditorClassIdentifier: 
  AnimationFramesPerSecond: 15
  sprites:
  - {fileID: 21300000, guid: 882191cbff0915449b1eef1e31c5302f, type: 3}
  - {fileID: 21300000, guid: 76b115035fd5c5047ac624c78fc4b4cf, type: 3}
  - {fileID: 21300000, guid: ed1c49e061fa3244fbd01b81b0706ba2, type: 3}
  - {fileID: 21300000, guid: 702d20eb95167b5449e06c73244fed7e, type: 3}
  - {fileID: 21300000, guid: 5c5b7068cc9a07a4eb119db037b01df3, type: 3}
  - {fileID: 21300000, guid: db6c7326c41c4ad44836320748bab8e4, type: 3}
  - {fileID: 21300000, guid: 6087bca37c5bade448defcfa9c339cba, type: 3}
  - {fileID: 21300000, guid: 106bd3f58b98e9d4b88a6764ccf8c583, type: 3}
